Extract word vectors from fasttext word embedding — fasttext • wordsalad
…
"hs" hierarchical softmax

"softmax" full softmax

    References

    Enriching Word Vectors with Subword Information, 2016, P.
Bojanowski, E. Grave, A. Joulin, T. Mikolov.

    Examples

fasttext(fairy_tales)
#> 
#> # A tibble: 452 x 11
#>    tokens     V1       V2    V3     V4     V5       V6    V7     V8       V9
#>    <chr>   <dbl>    <dbl> <dbl>  <dbl>  <dbl>    <dbl> <dbl>  <dbl>    <dbl>
#>  1 the    -0.184  1.32e-2 0.434 -0.381 0.211  -1.77e-2 0.259 -0.182  0.00467
#>  2 and    -0.188 -2.58e-2 0.437 -0.415 0.103   8.22e-4 0.185 -0.150 -0.0759 
#>  3 a      -0.267  1.39e-1 0.414 -0.415 0.168  -8.34e-2 0.210 -0.207 -0.0421 
#>  4 to     -0.230 -8.24e-4 0.385 -0.468 0.151  -4.02e-2 0.254 -0.219 -0.0696 
#>  5 he     -0.258  1.03e-1 0.374 -0.394 0.0922 -2.60e-2 0.206 -0.183 -0.117  
#>  6 of     -0.266  1.26e-1 0.423 -0.392 0.0994 -8.24e-2 0.287 -0.222 -0.0388 
#>  7 in     -0.277  9.02e-2 0.481 -0.424 0.123  -6.98e-2 0.217 -0.206 -0.00777
#>  8 she    -0.212  3.63e-2 0.410 -0.494 0.147  -6.83e-2 0.302 -0.188 -0.0421 
#>  9 was    -0.301  6.01e-2 0.465 -0.490 0.136  -3.28e-3 0.248 -0.208 -0.0834 
#> 10 as     -0.199  1.56e-2 0.505 -0.493 0.167  -8.33e-2 0.289 -0.175 -0.0685 
#> # … with 442 more rows, and 1 more variable: V10 <dbl>

# Custom tokenizer that splits on non-alphanumeric characters
fasttext(fairy_tales, tokenizer = function(x) strsplit(x, "[^[:alnum:]]+"))
#> 
#> # A tibble: 490 x 11
#>    tokens       V1    V2      V3       V4     V5       V6     V7     V8       V9
#>    <chr>     <dbl> <dbl>   <dbl>    <dbl>  <dbl>    <dbl>  <dbl>  <dbl>    <dbl>
#>  1 the     0.0947  0.488 -0.0875 -8.33e-4 -0.290 -0.0550  -0.250 -0.162 -0.0160 
#>  2 and     0.00264 0.553 -0.124   9.67e-2 -0.243  0.0261  -0.264 -0.288 -0.0162 
#>  3 a       0.0139  0.551 -0.0688  3.78e-2 -0.249 -0.0396  -0.264 -0.245 -0.00584
#>  4 to      0.0383  0.485 -0.118   2.81e-2 -0.307 -0.00523 -0.232 -0.230 -0.00501
#>  5 he      0.121   0.486 -0.0578  7.74e-3 -0.317 -0.0596  -0.308 -0.143 -0.0408 
#>  6 of     -0.0524  0.554 -0.207   1.22e-1 -0.263  0.0643  -0.272 -0.269 -0.0143 
#>  7 in      0.0662  0.585 -0.102   5.04e-2 -0.353 -0.0290  -0.293 -0.237  0.0446 
#>  8 she     0.0556  0.537 -0.136   2.58e-2 -0.300  0.0169  -0.279 -0.229 -0.0180 
#>  9 you    -0.0932  0.530 -0.107   1.13e-1 -0.187  0.0548  -0.257 -0.284 -0.0508 
#> 10 was     0.0665  0.549 -0.0918  4.41e-2 -0.305 -0.0276  -0.251 -0.216 -0.00270
#> # … with 480 more rows, and 1 more variable: V10 <dbl>
…
