Extract word vectors from word2vec word embedding — word2vec • wordsalad
…
"ns" negative sampling

"hs" hierarchical softmax

    References

    Mikolov, Tomas and Sutskever, Ilya and Chen, Kai and Corrado,
Greg S and Dean, Jeff. 2013. Distributed Representations of Words and
Phrases and their Compositionality

    Examples

word2vec(fairy_tales)
#> # A tibble: 452 x 51
#>    tokens      V1      V2       V3       V4       V5       V6       V7       V8
#>    <chr>    <dbl>   <dbl>    <dbl>    <dbl>    <dbl>    <dbl>    <dbl>    <dbl>
#>  1 into   0.0975  0.0208  -0.305    0.274   -1.97e-1 -0.131    0.354   -0.326  
#>  2 once   0.0527  0.0110  -0.133    0.121   -8.89e-2 -0.0500   0.169   -0.147  
#>  3 witch  0.0210  0.00549 -0.0689   0.0606  -4.73e-2 -0.0279   0.0738  -0.0758 
#>  4 green  0.0962  0.0231  -0.279    0.245   -1.88e-1 -0.120    0.325   -0.298  
#>  5 princ… 0.0464  0.00676 -0.123    0.108   -8.64e-2 -0.0498   0.150   -0.137  
#>  6 a      0.102   0.0110  -0.276    0.237   -1.76e-1 -0.0980   0.331   -0.295  
#>  7 moment 0.0531  0.00988 -0.156    0.132   -9.30e-2 -0.0648   0.185   -0.158  
#>  8 drove  0.0505  0.0138  -0.135    0.116   -8.43e-2 -0.0518   0.167   -0.150  
#>  9 door   0.0881  0.0175  -0.268    0.230   -1.73e-1 -0.115    0.322   -0.286  
#> 10 </s>   0.00356 0.00305  0.00486 -0.00254  2.87e-4 -0.00225 -0.00141  0.00135
#> # … with 442 more rows, and 42 more variables: V9 <dbl>, V10 <dbl>, V11 <dbl>,
#> #   V12 <dbl>, V13 <dbl>, V14 <dbl>, V15 <dbl>, V16 <dbl>, V17 <dbl>,
#> #   V18 <dbl>, V19 <dbl>, V20 <dbl>, V21 <dbl>, V22 <dbl>, V23 <dbl>,
#> #   V24 <dbl>, V25 <dbl>, V26 <dbl>, V27 <dbl>, V28 <dbl>, V29 <dbl>,
#> #   V30 <dbl>, V31 <dbl>, V32 <dbl>, V33 <dbl>, V34 <dbl>, V35 <dbl>,
#> #   V36 <dbl>, V37 <dbl>, V38 <dbl>, V39 <dbl>, V40 <dbl>, V41 <dbl>,
#> #   V42 <dbl>, V43 <dbl>, V44 <dbl>, V45 <dbl>, V46 <dbl>, V47 <dbl>,
#> #   V48 <dbl>, V49 <dbl>, V50 <dbl>

# Custom tokenizer that splits on non-alphanumeric characters
word2vec(fairy_tales, tokenizer = function(x) strsplit(x, "[^[:alnum:]]+"))
#> # A tibble: 489 x 51
#>    tokens      V1    V2      V3      V4      V5      V6     V7     V8      V9
#>    <chr>    <dbl> <dbl>   <dbl>   <dbl>   <dbl>   <dbl>  <dbl>  <dbl>   <dbl>
#>  1 field  -0.164  0.417 -0.176  -0.0718 -0.173  -0.210  0.242  0.179  -0.287 
#>  2 four   -0.114  0.279 -0.114  -0.0474 -0.114  -0.143  0.169  0.113  -0.173 
#>  3 black  -0.129  0.330 -0.140  -0.0590 -0.139  -0.171  0.193  0.131  -0.211 
#>  4 woman  -0.172  0.438 -0.179  -0.0740 -0.173  -0.224  0.252  0.176  -0.278 
#>  5 a      -0.193  0.456 -0.197  -0.0747 -0.187  -0.227  0.267  0.184  -0.294 
#>  6 body   -0.0555 0.133 -0.0517 -0.0286 -0.0612 -0.0723 0.0800 0.0601 -0.0872
#>  7 door   -0.168  0.418 -0.174  -0.0654 -0.161  -0.217  0.247  0.175  -0.276 
#>  8 let    -0.138  0.346 -0.144  -0.0586 -0.145  -0.182  0.209  0.147  -0.227 
#>  9 himse… -0.189  0.484 -0.191  -0.0826 -0.196  -0.256  0.288  0.198  -0.316 
#> 10 There  -0.189  0.472 -0.197  -0.0830 -0.192  -0.239  0.277  0.199  -0.298 
#> # … with 479 more rows, and 41 more variables: V10 <dbl>, V11 <dbl>, V12 <dbl>,
#> #   V13 <dbl>, V14 <dbl>, V15 <dbl>, V16 <dbl>, V17 <dbl>, V18 <dbl>,
#> #   V19 <dbl>, V20 <dbl>, V21 <dbl>, V22 <dbl>, V23 <dbl>, V24 <dbl>,
#> #   V25 <dbl>, V26 <dbl>, V27 <dbl>, V28 <dbl>, V29 <dbl>, V30 <dbl>,
#> #   V31 <dbl>, V32 <dbl>, V33 <dbl>, V34 <dbl>, V35 <dbl>, V36 <dbl>,
#> #   V37 <dbl>, V38 <dbl>, V39 <dbl>, V40 <dbl>, V41 <dbl>, V42 <dbl>,
#> #   V43 <dbl>, V44 <dbl>, V45 <dbl>, V46 <dbl>, V47 <dbl>, V48 <dbl>,
#> #   V49 <dbl>, V50 <dbl>
…
